Import Kallisto Data
…
# Add sample info to the filenames of the directories stored on Phoenix. 
sample_to_cov <- data.frame(path = paths) %>%
  mutate(basename = basename(as.character(path))) %>%
  mutate(id = gsub(x=basename,  pattern="^.*_(6|24)(Q|P)_P(N|H)([1-4]).*$", 
                   replacement = "\\1\\2_P\\3\\4")) %>% 
  left_join(samples, by = "id") %>%
  arrange(Age, Genotype, Hypoxia, Group) %>%
  dplyr::rename(sample = NewName) %>%
  dplyr::mutate(path = as.character(path))

sample_to_cov %>% as_tibble()

# A tibble: 32 x 9
   path             basename    id    Age   Genotype Hypoxia Gender Group sample
   <chr>            <chr>       <chr> <fct> <fct>    <fct>   <fct>  <chr> <chr> 
 1 /Volumes/biohub… 1_MORGAN_6… 6P_P… 6     wt       0       male   wt_6… wt_6_…
 2 /Volumes/biohub… 2_MORGAN_6… 6P_P… 6     wt       0       female wt_6… wt_6_…
 3 /Volumes/biohub… 3_MORGAN_6… 6P_P… 6     wt       0       female wt_6… wt_6_…
 4 /Volumes/biohub… 4_MORGAN_6… 6P_P… 6     wt       0       female wt_6… wt_6_…
 5 /Volumes/biohub… 10_MORGAN_… 6P_P… 6     wt       1       female wt_6… wt_6_…
 6 /Volumes/biohub… 11_MORGAN_… 6P_P… 6     wt       1       female wt_6… wt_6_…
 7 /Volumes/biohub… 12_MORGAN_… 6P_P… 6     wt       1       female wt_6… wt_6_…
 8 /Volumes/biohub… 9_MORGAN_6… 6P_P… 6     wt       1       female wt_6… wt_6_…
 9 /Volumes/biohub… 5_MORGAN_6… 6Q_P… 6     q96      0       female q96_… q96_6…
10 /Volumes/biohub… 6_MORGAN_6… 6Q_P… 6     q96      0       female q96_… q96_6…
# … with 22 more rows

4. Transcript-level counts

Create matrix of the transcript-level count estimates with new names from the samples table:

counts_t <- importedKallisto$counts[, sample_to_cov$id] %>% 
  set_colnames(sample_to_cov$sample)

# Preview
counts_t %>% as.data.frame %>% 
  rownames_to_column("transcript_id") %>% 
  as_tibble

# A tibble: 51,318 x 33
   transcript_id wt_6_0_1 wt_6_0_2 wt_6_0_3 wt_6_0_4 wt_6_1_2 wt_6_1_3 wt_6_1_4
   <chr>            <dbl>    <dbl>    <dbl>    <dbl>    <dbl>    <dbl>    <dbl>
 1 ENSDART00000…        0        0     0           0        0     0           0
 2 ENSDART00000…        0        0     0           0        0     0           0
 3 ENSDART00000…        0        2     0           0        0     0           0
 4 ENSDART00000…        0        0     0           0        0     0           0
 5 ENSDART00000…        1        6     1.48        1        5    12.7         4
 6 ENSDART00000…        0        1     0           0        2     0           1
 7 ENSDART00000…        0        0     0           0        0     0           0
 8 ENSDART00000…        1        0     1.52        1        4     4.26        4
 9 ENSDART00000…        0        0     0           0        1     0           1
10 ENSDART00000…        0        0     0           0        0     0           0
# … with 51,308 more rows, and 25 more variables: wt_6_1_1 <dbl>,
#   q96_6_0_1 <dbl>, q96_6_0_2 <dbl>, q96_6_0_3 <dbl>, q96_6_0_4 <dbl>,
#   q96_6_1_1 <dbl>, q96_6_1_2 <dbl>, q96_6_1_3 <dbl>, q96_6_1_4 <dbl>,
#   wt_24_0_1 <dbl>, wt_24_0_2 <dbl>, wt_24_0_3 <dbl>, wt_24_0_4 <dbl>,
#   wt_24_1_1 <dbl>, wt_24_1_2 <dbl>, wt_24_1_3 <dbl>, wt_24_1_4 <dbl>,
#   q96_24_0_1 <dbl>, q96_24_0_2 <dbl>, q96_24_0_3 <dbl>, q96_24_0_4 <dbl>,
#   q96_24_1_1 <dbl>, q96_24_1_2 <dbl>, q96_24_1_3 <dbl>, q96_24_1_4 <dbl>
…
# Get gene and transcript information:
genes <- genes(ensDb)
transcripts <- transcripts(ensDb)

mapTx2Gene <- transcripts %>% 
  as.data.frame %>%
  dplyr::select(tx_id_version, gene_id)

# Preview
mapTx2Gene %>% 
  rownames_to_column("transcript_id")%>%
  as_tibble()

# A tibble: 65,905 x 3
   transcript_id      tx_id_version        gene_id           
   <chr>              <chr>                <chr>             
 1 ENSDART00000164359 ENSDART00000164359.1 ENSDARG00000099104
 2 ENSDART00000157701 ENSDART00000157701.1 ENSDARG00000099104
 3 ENSDART00000158290 ENSDART00000158290.1 ENSDARG00000099104
 4 ENSDART00000167898 ENSDART00000167898.1 ENSDARG00000099104
 5 ENSDART00000166393 ENSDART00000166393.1 ENSDARG00000102407
 6 ENSDART00000161842 ENSDART00000161842.1 ENSDARG00000102407
 7 ENSDART00000170877 ENSDART00000170877.1 ENSDARG00000102407
 8 ENSDART00000165461 ENSDART00000165461.1 ENSDARG00000102407
 9 ENSDART00000171631 ENSDART00000171631.1 ENSDARG00000102407
10 ENSDART00000169005 ENSDART00000169005.1 ENSDARG00000102407
# … with 65,895 more rows
…
Joining, by = "tx_id_version"

Warning: Column `tx_id_version` joining factor and character vector, coercing
into character vector

# Preview
counts_g %>% as_tibble

# A tibble: 25,581 x 33
   gene_id wt_6_0_1 wt_6_0_2 wt_6_0_3 wt_6_0_4 wt_6_1_2 wt_6_1_3 wt_6_1_4
   <chr>      <dbl>    <dbl>    <dbl>    <dbl>    <dbl>    <dbl>    <dbl>
 1 ENSDAR…     197.     336.     263.     221.     250.     463.     214.
 2 ENSDAR…     131.     218.     170.     167.     141.     274.     304.
 3 ENSDAR…     592     1065      752      829.     795     1241      913.
 4 ENSDAR…    3204     5108     3561     3872     3405     5793     4741 
 5 ENSDAR…     217      441      302      285      326      535      342 
 6 ENSDAR…     334.     566.     410.     506.     479.     663.     638.
 7 ENSDAR…    3358.    6052     4111     4067.    3846.    6467.    3811 
 8 ENSDAR…    4504.    8190.    5061.    5568.    4828.    8239.    6452.
 9 ENSDAR…     331      542.     377      383      405      742      311 
10 ENSDAR…     320      564      409      365      502      848.     457 
# … with 25,571 more rows, and 25 more variables: wt_6_1_1 <dbl>,
#   q96_6_0_1 <dbl>, q96_6_0_2 <dbl>, q96_6_0_3 <dbl>, q96_6_0_4 <dbl>,
#   q96_6_1_1 <dbl>, q96_6_1_2 <dbl>, q96_6_1_3 <dbl>, q96_6_1_4 <dbl>,
#   wt_24_0_1 <dbl>, wt_24_0_2 <dbl>, wt_24_0_3 <dbl>, wt_24_0_4 <dbl>,
#   wt_24_1_1 <dbl>, wt_24_1_2 <dbl>, wt_24_1_3 <dbl>, wt_24_1_4 <dbl>,
#   q96_24_0_1 <dbl>, q96_24_0_2 <dbl>, q96_24_0_3 <dbl>, q96_24_0_4 <dbl>,
#   q96_24_1_1 <dbl>, q96_24_1_2 <dbl>, q96_24_1_3 <dbl>, q96_24_1_4 <dbl>
…
