Over-representation of IRE genes in MSigDB gene sets - Zebrafish
…
h_tib <- h_mapped %>% tibble %>% set_colnames(c("ids")) %>%
  mutate(geneset = names(h_mapped), source = "h") 
c2_tib <- c2_mapped %>% tibble %>% set_colnames(c("ids")) %>%
  mutate(geneset = names(c2_mapped), source = "c2")
c3_tib <- c3_mapped %>% tibble %>% set_colnames(c("ids")) %>% 
  mutate(geneset = names(c3_mapped), source = "c3")
c5_tib <- c5_mapped %>% tibble %>% set_colnames(c("ids")) %>%
  mutate(geneset = names(c5_mapped), source = "c5")

gs <- bind_rows(h_tib, c2_tib, c3_tib, c5_tib)

gs

# A tibble: 11,534 x 3
   ids         geneset                             source
   <list>      <chr>                               <chr> 
 1 <chr [258]> HALLMARK_TNFA_SIGNALING_VIA_NFKB    h     
 2 <chr [260]> HALLMARK_HYPOXIA                    h     
 3 <chr [91]>  HALLMARK_CHOLESTEROL_HOMEOSTASIS    h     
 4 <chr [257]> HALLMARK_MITOTIC_SPINDLE            h     
 5 <chr [53]>  HALLMARK_WNT_BETA_CATENIN_SIGNALING h     
 6 <chr [68]>  HALLMARK_TGF_BETA_SIGNALING         h     
 7 <chr [106]> HALLMARK_IL6_JAK_STAT3_SIGNALING    h     
 8 <chr [166]> HALLMARK_DNA_REPAIR                 h     
 9 <chr [253]> HALLMARK_G2M_CHECKPOINT             h     
10 <chr [199]> HALLMARK_APOPTOSIS                  h     
# … with 11,524 more rows
…
  # Number of genes in the gene set which have 5' predicted IREs
  n_with_ire5 = sum(ids %in% ireGenes$ire5_all),  
  n_without_ire5= (n - n_with_ire),
  universe_with_ire5 = sum(zebrafishGenes %in% ireGenes$ire5_all & 
                             !(zebrafishGenes %in% ids)), 
  universe_without_ire5 = (length(zebrafishGenes) - universe_with_ire5)
) %>% 
  ungroup()

gs

# A tibble: 11,534 x 16
   ids   geneset source     n n_with_ire n_without_ire universe_with_i…
   <lis> <chr>   <chr>  <int>      <int>         <int>            <int>
 1 <chr… HALLMA… h        258         15           243             1468
 2 <chr… HALLMA… h        260         17           243             1466
 3 <chr… HALLMA… h         91          4            87             1479
 4 <chr… HALLMA… h        257         24           233             1458
 5 <chr… HALLMA… h         53          2            51             1481
 6 <chr… HALLMA… h         68          6            62             1477
 7 <chr… HALLMA… h        106          9            97             1474
 8 <chr… HALLMA… h        166         12           154             1471
 9 <chr… HALLMA… h        253         22           231             1461
10 <chr… HALLMA… h        199         12           187             1471
# … with 11,524 more rows, and 9 more variables: universe_without_ire <int>,
#   n_with_ire3 <int>, n_without_ire3 <int>, universe_with_ire3 <int>,
#   universe_without_ire3 <int>, n_with_ire5 <int>, n_without_ire5 <int>,
#   universe_with_ire5 <int>, universe_without_ire5 <int>
…
There are 733 gene sets that pass the FDR-adjusted p-value < 0.05 threshold for significance.

The following table shows the top 50 gene sets enriched in IRE genesets, ranked by Fisher’s exact test p-values:

gs %>% ungroup() %>%
  arrange(fisher_p) %>%
  dplyr::select(geneset, contains("fdr"), n_with_ire, n, 
                starts_with("obs_greater")) %>% 
  head(50)

# A tibble: 50 x 9
   geneset      fdr    fdr_3   fdr_5 n_with_ire     n obs_greater_tha…
   <chr>      <dbl>    <dbl>   <dbl>      <int> <int> <lgl>           
 1 TTGCWC… 1.44e-14 2.61e-10 7.46e-4        213  2322 TRUE            
 2 TGANTC… 9.97e-14 8.35e-10 1.34e-3        241  2866 TRUE            
 3 YRTCAN… 9.86e-13 4.18e- 9 2.17e-3        264  3356 TRUE            
 4 TGGAAA… 2.75e-11 3.25e- 5 1.78e-6        200  2314 TRUE            
 5 TTTNNA… 3.58e- 9 1.96e- 5 1.34e-3        213  2689 TRUE            
 6 GO_INT… 5.59e- 9 2.77e- 5 1.34e-3        161  1820 TRUE            
 7 AAAYWA… 5.77e- 9 5.70e- 5 7.46e-4        185  2219 TRUE            
 8 DACOST… 1.52e- 8 7.90e- 5 1.34e-3        104   996 TRUE            
 9 GO_REG… 2.15e- 8 1.53e- 6 8.12e-2        161  1865 TRUE            
10 GO_ENZ… 2.90e- 8 1.11e- 4 1.34e-3        167  1976 TRUE            
# … with 40 more rows, and 2 more variables: obs_greater_than_exp_ire3 <lgl>,
#   obs_greater_than_exp_ire5 <lgl>

Sorted by genesets most enriched in 3’ IRE genes:

gs %>% ungroup %>% arrange(fisher_p_3) %>% 
  dplyr::select(geneset, contains("fdr"), n_with_ire3, n, 
                starts_with("obs_greater")) %>% head(50)

# A tibble: 50 x 9
   geneset      fdr    fdr_3   fdr_5 n_with_ire3     n obs_greater_tha…
   <chr>      <dbl>    <dbl>   <dbl>       <int> <int> <lgl>           
 1 TTGCWC… 1.44e-14 2.61e-10 7.46e-4         160  2322 TRUE            
 2 TGANTC… 9.97e-14 8.35e-10 1.34e-3         182  2866 TRUE            
 3 YRTCAN… 9.86e-13 4.18e- 9 2.17e-3         199  3356 TRUE            
 4 GO_REG… 2.15e- 8 1.53e- 6 8.12e-2         125  1865 TRUE            
 5 GO_REG… 1.90e- 7 5.93e- 6 1.38e-1         120  1814 TRUE            
 6 TTTNNA… 3.58e- 9 1.96e- 5 1.34e-3         156  2689 TRUE            
 7 GO_INT… 5.59e- 9 2.77e- 5 1.34e-3         117  1820 TRUE            
 8 TGGAAA… 2.75e-11 3.25e- 5 1.78e-6         138  2314 TRUE            
 9 GO_POS… 1.10e- 5 5.62e- 5 3.56e-1         125  2025 TRUE            
10 AAAYWA… 5.77e- 9 5.70e- 5 7.46e-4         133  2219 TRUE            
# … with 40 more rows, and 2 more variables: obs_greater_than_exp_ire3 <lgl>,
#   obs_greater_than_exp_ire5 <lgl>

Sorted by genesets most enriched in 5’ IRE genes:

gs %>% ungroup %>% arrange(fisher_p_5) %>% 
  dplyr::select(geneset, contains("fdr"), n_with_ire5, n, 
                starts_with("obs_greater")) %>% head(50)

# A tibble: 50 x 9
   geneset      fdr    fdr_3   fdr_5 n_with_ire5     n obs_greater_tha…
   <chr>      <dbl>    <dbl>   <dbl>       <int> <int> <lgl>           
 1 TGGAAA… 2.75e-11 3.25e- 5 1.78e-6          62  2314 TRUE            
 2 GO_SYN… 3.17e- 3 6.00e- 1 1.09e-4          20   364 TRUE            
 3 TGGNNN… 6.89e- 6 1.64e- 2 2.41e-4          35  1095 TRUE            
 4 GO_POS… 1.33e- 3 3.05e- 1 7.46e-4          16   285 TRUE            
 5 AAAYWA… 5.77e- 9 5.70e- 5 7.46e-4          52  2219 TRUE            
 6 TTGCWC… 1.44e-14 2.61e-10 7.46e-4          53  2322 TRUE            
 7 TNCATN… 1.48e- 2 8.28e- 1 7.46e-4          16   287 TRUE            
 8 FREAC3… 5.77e- 5 4.58e- 2 1.20e-3          15   274 TRUE            
 9 GO_ENZ… 2.90e- 8 1.11e- 4 1.34e-3          47  1976 TRUE            
10 TTTNNA… 3.58e- 9 1.96e- 5 1.34e-3          57  2689 TRUE            
# … with 40 more rows, and 2 more variables: obs_greater_than_exp_ire3 <lgl>,
#   obs_greater_than_exp_ire5 <lgl>
…
# Append the Hallmark Heme Metabolism geneset
# Although this gene set wasnt significantly enriched in 
# IRE-containing genes, it is probably the most comprehensive
# gene set specifically on heme metabolism, and combines info 
# from various studies. 
nodes %<>% bind_rows(
  h_tib %>% filter(geneset == "HALLMARK_HEME_METABOLISM") %>% mutate(n = length(ids[[1]]))
 ) 

nodes

# A tibble: 1,158 x 31
   ids   geneset source     n n_with_ire n_without_ire universe_with_i…
   <lis> <chr>   <chr>  <int>      <int>         <int>            <int>
 1 <chr… TTGCWC… c3      2322        213          2109             1274
 2 <chr… TGANTC… c3      2866        241          2625             1243
 3 <chr… YRTCAN… c3      3356        264          3092             1220
 4 <chr… TGGAAA… c3      2314        200          2114             1286
 5 <chr… TTTNNA… c3      2689        213          2476             1270
 6 <chr… GO_INT… c5      1820        161          1659             1322
 7 <chr… AAAYWA… c3      2219        185          2034             1299
 8 <chr… DACOST… c2       996        104           892             1378
 9 <chr… GO_REG… c5      1865        161          1704             1323
10 <chr… GO_ENZ… c5      1976        167          1809             1315
# … with 1,148 more rows, and 24 more variables: universe_without_ire <int>,
#   n_with_ire3 <int>, n_without_ire3 <int>, universe_with_ire3 <int>,
#   universe_without_ire3 <int>, n_with_ire5 <int>, n_without_ire5 <int>,
#   universe_with_ire5 <int>, universe_without_ire5 <int>, fisher_p <dbl>,
#   fisher_p_3 <dbl>, fisher_p_5 <dbl>, fdr <dbl>, fdr_3 <dbl>, fdr_5 <dbl>,
#   exp_allIRE <dbl>, obs_allIRE <int>, obs_greater_than_exp_allIRE <lgl>,
#   exp_ire3 <dbl>, obs_ire3 <int>, obs_greater_than_exp_ire3 <lgl>,
#   exp_ire5 <dbl>, obs_ire5 <int>, obs_greater_than_exp_ire5 <lgl>
…
Warning: Column `geneset` joining factor and character vector, coercing into
character vector

Warning: Column `geneset` joining factor and character vector, coercing into
character vector

gsComb 

# A tibble: 669,903 x 5
   geneset_nm      geneset                       ids.x      ids.y     common_ids
   <chr>           <chr>                         <list>     <list>    <list>    
 1 TTGCWCAAY_CEBP… TGANTCA_AP1_C                 <chr [2,3… <chr [2,… <chr [780…
 2 TTGCWCAAY_CEBP… YRTCANNRCGC_UNKNOWN           <chr [2,3… <chr [3,… <chr [917…
 3 TTGCWCAAY_CEBP… TGGAAA_NFAT_Q4_01             <chr [2,3… <chr [2,… <chr [842…
 4 TTGCWCAAY_CEBP… TTTNNANAGCYR_UNKNOWN          <chr [2,3… <chr [2,… <chr [888…
 5 TTGCWCAAY_CEBP… GO_INTRACELLULAR_SIGNAL_TRAN… <chr [2,3… <chr [1,… <chr [336…
 6 TTGCWCAAY_CEBP… AAAYWAACM_HFH4_01             <chr [2,3… <chr [2,… <chr [745…
 7 TTGCWCAAY_CEBP… DACOSTA_UV_RESPONSE_VIA_ERCC… <chr [2,3… <chr [99… <chr [237…
 8 TTGCWCAAY_CEBP… GO_REGULATION_OF_PROTEIN_MOD… <chr [2,3… <chr [1,… <chr [334…
 9 TTGCWCAAY_CEBP… GO_ENZYME_BINDING             <chr [2,3… <chr [1,… <chr [317…
10 TTGCWCAAY_CEBP… WTGAAAT_UNKNOWN               <chr [2,3… <chr [1,… <chr [348…
# … with 669,893 more rows
…
