Comparison of IRE gene sets between species
…
Warning: Column `human_gene_id`/`gene_id` joining factors with different levels,
coercing to character vector

Warning: Column `human_gene_id`/`gene_id` joining character vector and factor,
coercing into character vector

ire3_all_genes_all2 <- ire3_all_genes_all%>% 
  dplyr::filter(!is.na(human_gene_id) & !is.na(mouse_gene_id) &
                  !is.na(zebrafish_gene_id))

ire3_all_genes_all2 %>% as_tibble

# A tibble: 160 x 7
   human_gene_id mouse_gene_id zebrafish_gene_… gene_name gene_biotype
   <chr>         <fct>         <fct>            <chr>     <chr>       
 1 ENSG00000116… ENSG00000116… ENSG00000116329  OPRD1     protein_cod…
 2 ENSG00000126… ENSG00000126… ENSG00000126091  ST3GAL3   protein_cod…
 3 ENSG00000137… ENSG00000137… ENSG00000137959  IFI44L    protein_cod…
 4 ENSG00000265… ENSG00000265… ENSG00000265107  GJA5      protein_cod…
 5 ENSG00000116… ENSG00000116… ENSG00000116132  PRRX1     protein_cod…
 6 ENSG00000115… ENSG00000115… ENSG00000115109  EPB41L5   protein_cod…
 7 ENSG00000172… ENSG00000172… ENSG00000172292  CERS6     protein_cod…
 8 ENSG00000135… ENSG00000135… ENSG00000135913  USP37     protein_cod…
 9 ENSG00000144… ENSG00000144… ENSG00000144659  SLC25A38  protein_cod…
10 ENSG00000172… ENSG00000172… ENSG00000172765  TMCC1     protein_cod…
# … with 150 more rows, and 2 more variables: description <chr>, symbol <chr>
…
