Zebrafish MSigDB Gene Set Enrichment Testing
…
gseaResults_ire <- combinedGSEA(v, ireGenes_idx, design, contrasts)
gseaResults_kegg <- combinedGSEA(v, kegg_idx, design, contrasts)
gseaResults_h <- combinedGSEA(v, h_idx, design, contrasts)

6. Results

The combined p-values for each gene set in each comparison (contrast) can be seen below:

6.1. IRE gene sets

gseaResults_ire$combTest

$hypoxia_24mth_mutant_vs_wt
# A tibble: 50 x 5
   id                  Geneset                  wilkinsonp        fdr bonferroni
   <chr>               <chr>                         <dbl>      <dbl>      <dbl>
 1 hypoxia_24mth_muta… HALLMARK_ESTROGEN_RESP…     7.62e-9    1.43e-8 0.00000214
 2 hypoxia_24mth_muta… HALLMARK_HYPOXIA            1.96e-7    3.47e-7 0.0000513 
 3 hypoxia_24mth_muta… HALLMARK_ESTROGEN_RESP…     7.59e-7    1.31e-6 0.000193  
 4 hypoxia_24mth_muta… HALLMARK_KRAS_SIGNALIN…     1.03e-6    1.77e-6 0.000260  
 5 hypoxia_24mth_muta… HALLMARK_DNA_REPAIR         1.93e-6    3.25e-6 0.000472  
 6 hypoxia_24mth_muta… HALLMARK_ADIPOGENESIS       2.07e-6    3.48e-6 0.000505  
 7 hypoxia_24mth_muta… HALLMARK_ANDROGEN_RESP…     8.50e-6    1.39e-5 0.00198   
 8 hypoxia_24mth_muta… HALLMARK_GLYCOLYSIS         8.87e-6    1.44e-5 0.00206   
 9 hypoxia_24mth_muta… HALLMARK_UV_RESPONSE_DN     2.37e-5    3.73e-5 0.00521   
10 hypoxia_24mth_muta… HALLMARK_APOPTOSIS          6.09e-5    9.27e-5 0.0126    
# … with 40 more rows

$hypoxia_6mth_mutant_vs_wt
# A tibble: 50 x 5
   id                Geneset                      wilkinsonp      fdr bonferroni
   <chr>             <chr>                             <dbl>    <dbl>      <dbl>
 1 hypoxia_6mth_mut… HALLMARK_ADIPOGENESIS          7.93e-19 3.03e-18   3.52e-16
 2 hypoxia_6mth_mut… HALLMARK_EPITHELIAL_MESENCH…   9.89e-19 3.76e-18   4.38e-16
 3 hypoxia_6mth_mut… HALLMARK_HYPOXIA               3.56e-18 1.28e-17   1.54e-15
 4 hypoxia_6mth_mut… HALLMARK_ANDROGEN_RESPONSE     3.88e-18 1.38e-17   1.68e-15
 5 hypoxia_6mth_mut… HALLMARK_P53_PATHWAY           5.74e-18 1.97e-17   2.44e-15
 6 hypoxia_6mth_mut… HALLMARK_APOPTOSIS             1.40e-17 4.63e-17   5.88e-15
 7 hypoxia_6mth_mut… HALLMARK_HEME_METABOLISM       4.49e-17 1.40e-16   1.84e-14
 8 hypoxia_6mth_mut… HALLMARK_UV_RESPONSE_DN        7.13e-17 2.20e-16   2.90e-14
 9 hypoxia_6mth_mut… HALLMARK_TGF_BETA_SIGNALING    8.34e-17 2.55e-16   3.38e-14
10 hypoxia_6mth_mut… HALLMARK_UV_RESPONSE_UP        8.53e-17 2.60e-16   3.44e-14
# … with 40 more rows

$hypoxia_mutantAging
# A tibble: 50 x 5
   id              Geneset                        wilkinsonp      fdr bonferroni
   <chr>           <chr>                               <dbl>    <dbl>      <dbl>
 1 hypoxia_mutant… HALLMARK_COAGULATION             4.93e-37 4.22e-35   2.93e-34
 2 hypoxia_mutant… HALLMARK_XENOBIOTIC_METABOLISM   6.64e-31 1.93e-29   3.86e-28
 3 hypoxia_mutant… HALLMARK_ANDROGEN_RESPONSE       1.73e-30 4.34e-29   1.00e-27
 4 hypoxia_mutant… HALLMARK_HYPOXIA                 1.65e-28 2.53e-27   9.25e-26
 5 hypoxia_mutant… HALLMARK_APOPTOSIS               4.63e-28 6.47e-27   2.59e-25
 6 hypoxia_mutant… HALLMARK_REACTIVE_OXIGEN_SPEC…   2.09e-27 2.79e-26   1.16e-24
 7 hypoxia_mutant… HALLMARK_ADIPOGENESIS            1.08e-26 1.29e-25   5.92e-24
 8 hypoxia_mutant… HALLMARK_HEME_METABOLISM         4.12e-26 4.42e-25   2.25e-23
 9 hypoxia_mutant… HALLMARK_GLYCOLYSIS              6.27e-25 5.37e-24   3.33e-22
10 hypoxia_mutant… HALLMARK_BILE_ACID_METABOLISM    1.27e-24 1.06e-23   6.73e-22
# … with 40 more rows

$hypoxia_wtAging
# A tibble: 50 x 5
   id            Geneset                          wilkinsonp      fdr bonferroni
   <chr>         <chr>                                 <dbl>    <dbl>      <dbl>
 1 hypoxia_wtAg… HALLMARK_COAGULATION               1.06e-42 6.39e-40   6.39e-40
 2 hypoxia_wtAg… HALLMARK_HEME_METABOLISM           3.33e-41 9.99e-39   1.99e-38
 3 hypoxia_wtAg… HALLMARK_ESTROGEN_RESPONSE_LATE    1.19e-38 1.78e-36   7.08e-36
 4 hypoxia_wtAg… HALLMARK_COMPLEMENT                4.84e-38 5.81e-36   2.88e-35
 5 hypoxia_wtAg… HALLMARK_APICAL_JUNCTION           2.59e-37 2.59e-35   1.54e-34
 6 hypoxia_wtAg… HALLMARK_GLYCOLYSIS                3.12e-36 2.34e-34   1.85e-33
 7 hypoxia_wtAg… HALLMARK_XENOBIOTIC_METABOLISM     2.35e-35 1.57e-33   1.39e-32
 8 hypoxia_wtAg… HALLMARK_ESTROGEN_RESPONSE_EARLY   3.21e-35 1.93e-33   1.90e-32
 9 hypoxia_wtAg… HALLMARK_EPITHELIAL_MESENCHYMAL…   1.72e-33 8.62e-32   1.02e-30
10 hypoxia_wtAg… HALLMARK_IL2_STAT5_SIGNALING       6.95e-33 2.98e-31   4.08e-30
# … with 40 more rows

$mutant_24mth_hypoxia_vs_normoxia
# A tibble: 50 x 5
   id                     Geneset                 wilkinsonp      fdr bonferroni
   <chr>                  <chr>                        <dbl>    <dbl>      <dbl>
 1 mutant_24mth_hypoxia_… HALLMARK_HYPOXIA          2.31e-12 5.40e-12   7.96e-10
 2 mutant_24mth_hypoxia_… HALLMARK_ANDROGEN_RESP…   5.08e- 8 9.26e- 8   1.38e- 5
 3 mutant_24mth_hypoxia_… HALLMARK_ESTROGEN_RESP…   1.30e- 7 2.33e- 7   3.45e- 5
 4 mutant_24mth_hypoxia_… HALLMARK_UV_RESPONSE_DN   1.90e- 7 3.38e- 7   5.01e- 5
 5 mutant_24mth_hypoxia_… HALLMARK_UNFOLDED_PROT…   1.90e- 7 3.38e- 7   5.01e- 5
 6 mutant_24mth_hypoxia_… HALLMARK_TNFA_SIGNALIN…   3.86e- 6 6.43e- 6   9.30e- 4
 7 mutant_24mth_hypoxia_… HALLMARK_HEME_METABOLI…   4.37e- 6 7.27e- 6   1.05e- 3
 8 mutant_24mth_hypoxia_… HALLMARK_P53_PATHWAY      6.49e- 6 1.07e- 5   1.54e- 3
 9 mutant_24mth_hypoxia_… HALLMARK_GLYCOLYSIS       7.99e- 6 1.31e- 5   1.88e- 3
10 mutant_24mth_hypoxia_… HALLMARK_ANGIOGENESIS     2.02e- 5 3.20e- 5   4.49e- 3
# … with 40 more rows

$mutant_6mth_hypoxia_vs_normoxia
# A tibble: 50 x 5
   id                   Geneset                   wilkinsonp      fdr bonferroni
   <chr>                <chr>                          <dbl>    <dbl>      <dbl>
 1 mutant_6mth_hypoxia… HALLMARK_EPITHELIAL_MESE…   2.16e-31 7.19e-30   1.26e-28
 2 mutant_6mth_hypoxia… HALLMARK_HYPOXIA            7.09e-31 1.93e-29   4.11e-28
 3 mutant_6mth_hypoxia… HALLMARK_ADIPOGENESIS       5.50e-30 1.22e-28   3.16e-27
 4 mutant_6mth_hypoxia… HALLMARK_ANDROGEN_RESPON…   5.37e-29 8.94e-28   3.03e-26
 5 mutant_6mth_hypoxia… HALLMARK_APOPTOSIS          3.55e-28 5.32e-27   1.99e-25
 6 mutant_6mth_hypoxia… HALLMARK_UV_RESPONSE_UP     9.31e-28 1.27e-26   5.19e-25
 7 mutant_6mth_hypoxia… HALLMARK_KRAS_SIGNALING_…   2.40e-26 2.76e-25   1.32e-23
 8 mutant_6mth_hypoxia… HALLMARK_IL2_STAT5_SIGNA…   4.35e-26 4.58e-25   2.37e-23
 9 mutant_6mth_hypoxia… HALLMARK_TGF_BETA_SIGNAL…   5.80e-26 6.00e-25   3.15e-23
10 mutant_6mth_hypoxia… HALLMARK_P53_PATHWAY        1.39e-25 1.32e-24   7.46e-23
# … with 40 more rows

$normoxia_24mth_mutant_vs_wt
# A tibble: 50 x 5
   id                   Geneset                  wilkinsonp       fdr bonferroni
   <chr>                <chr>                         <dbl>     <dbl>      <dbl>
 1 normoxia_24mth_muta… HALLMARK_PI3K_AKT_MTOR_… 0.00000323   5.40e-6   0.000782
 2 normoxia_24mth_muta… HALLMARK_PROTEIN_SECRET… 0.00000684   1.12e-5   0.00161 
 3 normoxia_24mth_muta… HALLMARK_P53_PATHWAY     0.0000100    1.63e-5   0.00232 
 4 normoxia_24mth_muta… HALLMARK_ESTROGEN_RESPO… 0.0000112    1.82e-5   0.00259 
 5 normoxia_24mth_muta… HALLMARK_HEME_METABOLISM 0.0000173    2.75e-5   0.00388 
 6 normoxia_24mth_muta… HALLMARK_NOTCH_SIGNALING 0.0000185    2.94e-5   0.00414 
 7 normoxia_24mth_muta… HALLMARK_GLYCOLYSIS      0.0000221    3.49e-5   0.00489 
 8 normoxia_24mth_muta… HALLMARK_SPERMATOGENESIS 0.0000475    7.34e-5   0.0101  
 9 normoxia_24mth_muta… HALLMARK_APOPTOSIS       0.0000498    7.66e-5   0.0105  
10 normoxia_24mth_muta… HALLMARK_MITOTIC_SPINDLE 0.0000703    1.06e-4   0.0142  
# … with 40 more rows

$normoxia_6mth_mutant_vs_wt
# A tibble: 50 x 5
   id                 Geneset                      wilkinsonp     fdr bonferroni
   <chr>              <chr>                             <dbl>   <dbl>      <dbl>
 1 normoxia_6mth_mut… HALLMARK_MYC_TARGETS_V1       0.0000796 1.18e-4     0.0158
 2 normoxia_6mth_mut… HALLMARK_OXIDATIVE_PHOSPHOR…  0.0000796 1.18e-4     0.0158
 3 normoxia_6mth_mut… HALLMARK_MTORC1_SIGNALING     0.000478  6.62e-4     0.0803
 4 normoxia_6mth_mut… HALLMARK_ADIPOGENESIS         0.000634  8.56e-4     0.0995
 5 normoxia_6mth_mut… HALLMARK_EPITHELIAL_MESENCH…  0.00121   1.59e-3     0.175 
 6 normoxia_6mth_mut… HALLMARK_NOTCH_SIGNALING      0.00436   5.47e-3     0.532 
 7 normoxia_6mth_mut… HALLMARK_FATTY_ACID_METABOL…  0.00516   6.37e-3     0.593 
 8 normoxia_6mth_mut… HALLMARK_PROTEIN_SECRETION    0.0113    1.36e-2     1     
 9 normoxia_6mth_mut… HALLMARK_GLYCOLYSIS           0.0118    1.42e-2     1     
10 normoxia_6mth_mut… HALLMARK_G2M_CHECKPOINT       0.0148    1.75e-2     1     
# … with 40 more rows

$normoxia_mutantAging
# A tibble: 50 x 5
   id               Geneset                       wilkinsonp      fdr bonferroni
   <chr>            <chr>                              <dbl>    <dbl>      <dbl>
 1 normoxia_mutant… HALLMARK_XENOBIOTIC_METABOLI…   6.41e-30 1.37e-28   3.68e-27
 2 normoxia_mutant… HALLMARK_ESTROGEN_RESPONSE_E…   1.77e-26 2.08e-25   9.71e-24
 3 normoxia_mutant… HALLMARK_COAGULATION            2.99e-26 3.38e-25   1.64e-23
 4 normoxia_mutant… HALLMARK_ADIPOGENESIS           1.35e-25 1.31e-24   7.28e-23
 5 normoxia_mutant… HALLMARK_MYOGENESIS             8.03e-24 5.88e-23   4.17e-21
 6 normoxia_mutant… HALLMARK_PEROXISOME             1.36e-22 8.58e-22   6.90e-20
 7 normoxia_mutant… HALLMARK_UV_RESPONSE_UP         1.82e-22 1.11e-21   9.15e-20
 8 normoxia_mutant… HALLMARK_HYPOXIA                2.18e-22 1.31e-21   1.09e-19
 9 normoxia_mutant… HALLMARK_REACTIVE_OXIGEN_SPE…   4.33e-22 2.50e-21   2.15e-19
10 normoxia_mutant… HALLMARK_BILE_ACID_METABOLISM   9.63e-22 5.26e-21   4.73e-19
# … with 40 more rows

$normoxia_wtAging
# A tibble: 50 x 5
   id             Geneset                         wilkinsonp      fdr bonferroni
   <chr>          <chr>                                <dbl>    <dbl>      <dbl>
 1 normoxia_wtAg… HALLMARK_XENOBIOTIC_METABOLISM    6.72e-41 1.34e-38   4.02e-38
 2 normoxia_wtAg… HALLMARK_COAGULATION              7.77e-34 4.24e-32   4.59e-31
 3 normoxia_wtAg… HALLMARK_HYPOXIA                  3.76e-33 1.73e-31   2.21e-30
 4 normoxia_wtAg… HALLMARK_ANDROGEN_RESPONSE        5.66e-32 2.00e-30   3.30e-29
 5 normoxia_wtAg… HALLMARK_HEME_METABOLISM          3.58e-30 8.58e-29   2.06e-27
 6 normoxia_wtAg… HALLMARK_ESTROGEN_RESPONSE_EAR…   1.75e-29 3.40e-28   1.00e-26
 7 normoxia_wtAg… HALLMARK_ADIPOGENESIS             5.04e-29 8.89e-28   2.86e-26
 8 normoxia_wtAg… HALLMARK_REACTIVE_OXIGEN_SPECI…   4.40e-28 6.29e-27   2.46e-25
 9 normoxia_wtAg… HALLMARK_MITOTIC_SPINDLE          2.36e-27 3.07e-26   1.31e-24
10 normoxia_wtAg… HALLMARK_GLYCOLYSIS               3.59e-27 4.49e-26   1.99e-24
# … with 40 more rows

$wt_24mth_hypoxia_vs_normoxia
# A tibble: 50 x 5
   id                    Geneset                  wilkinsonp      fdr bonferroni
   <chr>                 <chr>                         <dbl>    <dbl>      <dbl>
 1 wt_24mth_hypoxia_vs_… HALLMARK_HYPOXIA           2.24e-25 2.04e-24   1.20e-22
 2 wt_24mth_hypoxia_vs_… HALLMARK_ESTROGEN_RESPO…   2.10e-23 1.48e-22   1.08e-20
 3 wt_24mth_hypoxia_vs_… HALLMARK_GLYCOLYSIS        4.65e-23 3.17e-22   2.38e-20
 4 wt_24mth_hypoxia_vs_… HALLMARK_P53_PATHWAY       3.42e-22 1.99e-21   1.70e-19
 5 wt_24mth_hypoxia_vs_… HALLMARK_APOPTOSIS         2.47e-20 1.16e-19   1.17e-17
 6 wt_24mth_hypoxia_vs_… HALLMARK_TNFA_SIGNALING…   3.83e-20 1.70e-19   1.79e-17
 7 wt_24mth_hypoxia_vs_… HALLMARK_ANDROGEN_RESPO…   7.75e-19 2.98e-18   3.45e-16
 8 wt_24mth_hypoxia_vs_… HALLMARK_ESTROGEN_RESPO…   1.09e-18 4.10e-18   4.80e-16
 9 wt_24mth_hypoxia_vs_… HALLMARK_UV_RESPONSE_DN    1.67e-17 5.43e-17   6.96e-15
10 wt_24mth_hypoxia_vs_… HALLMARK_KRAS_SIGNALING…   7.48e-17 2.30e-16   3.04e-14
# … with 40 more rows

$wt_6mth_hypoxia_vs_normoxia
# A tibble: 50 x 5
   id                    Geneset                  wilkinsonp      fdr bonferroni
   <chr>                 <chr>                         <dbl>    <dbl>      <dbl>
 1 wt_6mth_hypoxia_vs_n… HALLMARK_HYPOXIA           4.35e-32 1.63e-30   2.54e-29
 2 wt_6mth_hypoxia_vs_n… HALLMARK_GLYCOLYSIS        3.14e-26 3.48e-25   1.72e-23
 3 wt_6mth_hypoxia_vs_n… HALLMARK_E2F_TARGETS       3.93e-23 2.71e-22   2.02e-20
 4 wt_6mth_hypoxia_vs_n… HALLMARK_HEME_METABOLISM   8.64e-23 5.70e-22   4.41e-20
 5 wt_6mth_hypoxia_vs_n… HALLMARK_UV_RESPONSE_UP    3.11e-22 1.83e-21   1.55e-19
 6 wt_6mth_hypoxia_vs_n… HALLMARK_ESTROGEN_RESPO…   6.94e-22 3.93e-21   3.43e-19
 7 wt_6mth_hypoxia_vs_n… HALLMARK_MTORC1_SIGNALI…   7.93e-22 4.45e-21   3.92e-19
 8 wt_6mth_hypoxia_vs_n… HALLMARK_P53_PATHWAY       1.45e-21 7.77e-21   7.09e-19
 9 wt_6mth_hypoxia_vs_n… HALLMARK_TNFA_SIGNALING…   2.87e-21 1.51e-20   1.40e-18
10 wt_6mth_hypoxia_vs_n… HALLMARK_ADIPOGENESIS      8.83e-21 4.53e-20   4.27e-18
# … with 40 more rows

6.2. KEGG gene sets

gseaResults_kegg$combTest

$hypoxia_24mth_mutant_vs_wt
# A tibble: 186 x 5
   id               Geneset                      wilkinsonp       fdr bonferroni
   <chr>            <chr>                             <dbl>     <dbl>      <dbl>
 1 hypoxia_24mth_m… KEGG_INOSITOL_PHOSPHATE_MET…    3.78e-7   9.65e-7   0.000514
 2 hypoxia_24mth_m… KEGG_ALZHEIMERS_DISEASE         9.67e-7   2.37e-6   0.00128 
 3 hypoxia_24mth_m… KEGG_VASCULAR_SMOOTH_MUSCLE…    2.03e-6   4.83e-6   0.00263 
 4 hypoxia_24mth_m… KEGG_PORPHYRIN_AND_CHLOROPH…    2.51e-6   5.93e-6   0.00323 
 5 hypoxia_24mth_m… KEGG_CARDIAC_MUSCLE_CONTRAC…    2.61e-6   6.17e-6   0.00336 
 6 hypoxia_24mth_m… KEGG_GLYCOLYSIS_GLUCONEOGEN…    2.70e-6   6.35e-6   0.00346 
 7 hypoxia_24mth_m… KEGG_HUNTINGTONS_DISEASE        2.76e-6   6.48e-6   0.00354 
 8 hypoxia_24mth_m… KEGG_GAP_JUNCTION               3.31e-6   7.66e-6   0.00420 
 9 hypoxia_24mth_m… KEGG_PHOSPHATIDYLINOSITOL_S…    6.19e-6   1.39e-5   0.00768 
10 hypoxia_24mth_m… KEGG_SNARE_INTERACTIONS_IN_…    7.26e-6   1.62e-5   0.00897 
# … with 176 more rows

$hypoxia_6mth_mutant_vs_wt
# A tibble: 186 x 5
   id                 Geneset                     wilkinsonp      fdr bonferroni
   <chr>              <chr>                            <dbl>    <dbl>      <dbl>
 1 hypoxia_6mth_muta… KEGG_TIGHT_JUNCTION           4.35e-19 4.93e-18   8.86e-16
 2 hypoxia_6mth_muta… KEGG_PATHWAYS_IN_CANCER       1.11e-18 1.20e-17   2.26e-15
 3 hypoxia_6mth_muta… KEGG_FOCAL_ADHESION           5.89e-18 5.46e-17   1.17e-14
 4 hypoxia_6mth_muta… KEGG_P53_SIGNALING_PATHWAY    1.18e-17 1.06e-16   2.35e-14
 5 hypoxia_6mth_muta… KEGG_PYRIMIDINE_METABOLISM    1.58e-17 1.41e-16   3.14e-14
 6 hypoxia_6mth_muta… KEGG_RNA_POLYMERASE           7.80e-17 6.24e-16   1.52e-13
 7 hypoxia_6mth_muta… KEGG_TGF_BETA_SIGNALING_PA…   1.71e-16 1.27e-15   3.30e-13
 8 hypoxia_6mth_muta… KEGG_MAPK_SIGNALING_PATHWAY   2.62e-16 1.91e-15   5.04e-13
 9 hypoxia_6mth_muta… KEGG_NUCLEOTIDE_EXCISION_R…   9.54e-16 6.30e-15   1.81e-12
10 hypoxia_6mth_muta… KEGG_VASCULAR_SMOOTH_MUSCL…   1.83e-15 1.16e-14   3.44e-12
# … with 176 more rows

$hypoxia_mutantAging
# A tibble: 186 x 5
   id               Geneset                       wilkinsonp      fdr bonferroni
   <chr>            <chr>                              <dbl>    <dbl>      <dbl>
 1 hypoxia_mutantA… KEGG_GAP_JUNCTION               8.55e-26 3.91e-24   1.87e-22
 2 hypoxia_mutantA… KEGG_PATHWAYS_IN_CANCER         4.86e-25 2.09e-23   1.06e-21
 3 hypoxia_mutantA… KEGG_WNT_SIGNALING_PATHWAY      1.01e-23 2.96e-22   2.17e-20
 4 hypoxia_mutantA… KEGG_GLYCEROPHOSPHOLIPID_MET…   2.10e-23 5.60e-22   4.51e-20
 5 hypoxia_mutantA… KEGG_FOCAL_ADHESION             2.16e-23 5.66e-22   4.63e-20
 6 hypoxia_mutantA… KEGG_MAPK_SIGNALING_PATHWAY     5.60e-23 1.31e-21   1.20e-19
 7 hypoxia_mutantA… KEGG_PURINE_METABOLISM          6.22e-23 1.42e-21   1.33e-19
 8 hypoxia_mutantA… KEGG_MELANOMA                   9.22e-23 2.02e-21   1.96e-19
 9 hypoxia_mutantA… KEGG_PROPANOATE_METABOLISM      1.10e-22 2.36e-21   2.35e-19
10 hypoxia_mutantA… KEGG_ADHERENS_JUNCTION          1.20e-22 2.51e-21   2.56e-19
# … with 176 more rows

$hypoxia_wtAging
# A tibble: 186 x 5
   id           Geneset                           wilkinsonp      fdr bonferroni
   <chr>        <chr>                                  <dbl>    <dbl>      <dbl>
 1 hypoxia_wtA… KEGG_PATHWAYS_IN_CANCER             6.08e-44 1.36e-40   1.36e-40
 2 hypoxia_wtA… KEGG_GLYCEROPHOSPHOLIPID_METABOL…   2.22e-40 2.47e-37   4.95e-37
 3 hypoxia_wtA… KEGG_PURINE_METABOLISM              5.04e-39 3.75e-36   1.12e-35
 4 hypoxia_wtA… KEGG_REGULATION_OF_ACTIN_CYTOSKE…   3.03e-35 1.69e-32   6.75e-32
 5 hypoxia_wtA… KEGG_HEMATOPOIETIC_CELL_LINEAGE     1.45e-33 6.49e-31   3.24e-30
 6 hypoxia_wtA… KEGG_NEUROACTIVE_LIGAND_RECEPTOR…   2.32e-33 8.56e-31   5.16e-30
 7 hypoxia_wtA… KEGG_VALINE_LEUCINE_AND_ISOLEUCI…   2.68e-33 8.56e-31   5.97e-30
 8 hypoxia_wtA… KEGG_PYRIMIDINE_METABOLISM          5.24e-33 1.46e-30   1.17e-29
 9 hypoxia_wtA… KEGG_LONG_TERM_DEPRESSION           6.98e-33 1.73e-30   1.55e-29
10 hypoxia_wtA… KEGG_ADHERENS_JUNCTION              8.47e-33 1.89e-30   1.88e-29
# … with 176 more rows

$mutant_24mth_hypoxia_vs_normoxia
# A tibble: 186 x 5
   id                  Geneset                   wilkinsonp       fdr bonferroni
   <chr>               <chr>                          <dbl>     <dbl>      <dbl>
 1 mutant_24mth_hypox… KEGG_VEGF_SIGNALING_PAT…     4.99e-8   1.34e-7  0.0000698
 2 mutant_24mth_hypox… KEGG_RENAL_CELL_CARCINO…     6.35e-7   1.58e-6  0.000850 
 3 mutant_24mth_hypox… KEGG_SMALL_CELL_LUNG_CA…     3.52e-6   8.12e-6  0.00445  
 4 mutant_24mth_hypox… KEGG_CIRCADIAN_RHYTHM_M…     4.52e-6   1.03e-5  0.00567  
 5 mutant_24mth_hypox… KEGG_MTOR_SIGNALING_PAT…     1.48e-5   3.22e-5  0.0179   
 6 mutant_24mth_hypox… KEGG_RIG_I_LIKE_RECEPTO…     4.16e-5   8.57e-5  0.0478   
 7 mutant_24mth_hypox… KEGG_BLADDER_CANCER          4.26e-5   8.77e-5  0.0489   
 8 mutant_24mth_hypox… KEGG_PATHWAYS_IN_CANCER      5.18e-5   1.05e-4  0.0589   
 9 mutant_24mth_hypox… KEGG_CHRONIC_MYELOID_LE…     6.07e-5   1.23e-4  0.0686   
10 mutant_24mth_hypox… KEGG_REGULATION_OF_ACTI…     6.15e-5   1.24e-4  0.0695   
# … with 176 more rows

$mutant_6mth_hypoxia_vs_normoxia
# A tibble: 186 x 5
   id                  Geneset                    wilkinsonp      fdr bonferroni
   <chr>               <chr>                           <dbl>    <dbl>      <dbl>
 1 mutant_6mth_hypoxi… KEGG_P53_SIGNALING_PATHWAY   9.36e-29 8.03e-27   2.06e-25
 2 mutant_6mth_hypoxi… KEGG_MAPK_SIGNALING_PATHW…   4.57e-26 2.27e-24   9.99e-23
 3 mutant_6mth_hypoxi… KEGG_PATHWAYS_IN_CANCER      6.11e-25 2.52e-23   1.33e-21
 4 mutant_6mth_hypoxi… KEGG_GLYCEROPHOSPHOLIPID_…   5.52e-23 1.31e-21   1.18e-19
 5 mutant_6mth_hypoxi… KEGG_GLYCEROLIPID_METABOL…   2.54e-21 3.99e-20   5.30e-18
 6 mutant_6mth_hypoxi… KEGG_TGF_BETA_SIGNALING_P…   3.37e-21 5.18e-20   7.03e-18
 7 mutant_6mth_hypoxi… KEGG_CYTOKINE_CYTOKINE_RE…   4.28e-21 6.41e-20   8.92e-18
 8 mutant_6mth_hypoxi… KEGG_FOCAL_ADHESION          1.84e-19 2.22e-18   3.77e-16
 9 mutant_6mth_hypoxi… KEGG_RENAL_CELL_CARCINOMA    9.58e-19 1.05e-17   1.94e-15
10 mutant_6mth_hypoxi… KEGG_SMALL_CELL_LUNG_CANC…   1.01e-18 1.10e-17   2.06e-15
# … with 176 more rows
…
